<?xml version="1.0" standalone="no"?>
<svg width="567.429" height="556.053" viewBox="0 0 567.429 556.053" xmlns="http://www.w3.org/2000/svg" shape-rendering="crispEdges">
<title>
converted_syst_bkgh2_data_fc.svg
</title>
<desc>
Creator: ROOT Version 6.20/06
CreationDate: Wed Nov  3 18:07:51 2021</desc>
<defs>
</defs>
<rect x="0.5" y="0" width="566.929" height="555.553" fill="white"/>
<rect x="91.2087" y="27.7776" width="447.874" height="438.887" fill="white"/>
<rect x="91.2087" y="27.7776" width="447.874" height="438.887" fill="none" stroke="black"/>
<rect x="91.2087" y="27.7776" width="447.874" height="438.887" fill="white"/>
<rect x="91.2087" y="27.7776" width="447.874" height="438.887" fill="none" stroke="black"/>
<rect x="91.2087" y="403.881" width="113.386" height="62.7828" fill="#7babe4"/>
<rect x="204.594" y="403.881" width="145.512" height="62.7828" fill="#8abbe1"/>
<rect x="378.453" y="403.881" width="52.9134" height="62.7828" fill="#d6e2bd"/>
<rect x="431.366" y="403.881" width="107.717" height="62.7828" fill="#c47737"/>
<rect x="91.2087" y="375.687" width="113.386" height="28.1948" fill="#6595de"/>
<rect x="204.594" y="375.687" width="145.512" height="28.1948" fill="#7babe4"/>
<rect x="378.453" y="375.687" width="52.9134" height="28.1948" fill="#dbdeaa"/>
<rect x="431.366" y="375.687" width="107.717" height="28.1948" fill="#bd5c2c"/>
<rect x="91.2087" y="27.7776" width="113.386" height="347.909" fill="#6595de"/>
<rect x="204.594" y="27.7776" width="145.512" height="347.909" fill="#7babe4"/>
<rect x="378.453" y="27.7776" width="52.9134" height="347.909" fill="#d6e2bd"/>
<rect x="431.366" y="27.7776" width="107.717" height="347.909" fill="#b74322"/>
<g transform="rotate(-1,137.492,441.788)">
<text xml:space="preserve" x="137.492" y="441.788" fill="black" font-size="12.7324" font-family="Helvetica"> 0.04</text>
</g>
<g transform="rotate(-1,130.382,442.262)">
<text xml:space="preserve" x="130.382" y="442.262" fill="black" font-size="12.7324" font-family="Times">&#0177;</text>
</g>
<g transform="rotate(-1,129.908,429.463)">
<text xml:space="preserve" x="129.908" y="429.463" fill="black" font-size="12.7324" font-family="Helvetica">2.66</text>
</g>
<g transform="rotate(-1,268.322,441.788)">
<text xml:space="preserve" x="268.322" y="441.788" fill="black" font-size="12.7324" font-family="Helvetica"> 0.11</text>
</g>
<g transform="rotate(-1,261.212,442.262)">
<text xml:space="preserve" x="261.212" y="442.262" fill="black" font-size="12.7324" font-family="Times">&#0177;</text>
</g>
<g transform="rotate(-1,260.738,429.463)">
<text xml:space="preserve" x="260.738" y="429.463" fill="black" font-size="12.7324" font-family="Helvetica">3.54</text>
</g>
<g transform="rotate(-1,395.834,441.788)">
<text xml:space="preserve" x="395.834" y="441.788" fill="black" font-size="12.7324" font-family="Helvetica"> 0.11</text>
</g>
<g transform="rotate(-1,388.723,442.262)">
<text xml:space="preserve" x="388.723" y="442.262" fill="black" font-size="12.7324" font-family="Times">&#0177;</text>
</g>
<g transform="rotate(-1,388.249,429.463)">
<text xml:space="preserve" x="388.249" y="429.463" fill="black" font-size="12.7324" font-family="Helvetica">6.80</text>
</g>
<g transform="rotate(-1,474.995,441.788)">
<text xml:space="preserve" x="474.995" y="441.788" fill="black" font-size="12.7324" font-family="Helvetica"> 0.05</text>
</g>
<g transform="rotate(-1,467.885,442.262)">
<text xml:space="preserve" x="467.885" y="442.262" fill="black" font-size="12.7324" font-family="Times">&#0177;</text>
</g>
<g transform="rotate(-1,467.411,429.463)">
<text xml:space="preserve" x="467.411" y="429.463" fill="black" font-size="12.7324" font-family="Helvetica">11.08</text>
</g>
<g transform="rotate(-1,137.492,399.6)">
<text xml:space="preserve" x="137.492" y="399.6" fill="black" font-size="12.7324" font-family="Helvetica"> 0.02</text>
</g>
<g transform="rotate(-1,130.382,399.6)">
<text xml:space="preserve" x="130.382" y="399.6" fill="black" font-size="12.7324" font-family="Times">&#0177;</text>
</g>
<g transform="rotate(-1,129.908,387.275)">
<text xml:space="preserve" x="129.908" y="387.275" fill="black" font-size="12.7324" font-family="Helvetica">2.24</text>
</g>
<g transform="rotate(-1,267.374,399.6)">
<text xml:space="preserve" x="267.374" y="399.6" fill="black" font-size="12.7324" font-family="Helvetica"> 0.03</text>
</g>
<g transform="rotate(-1,260.264,400.074)">
<text xml:space="preserve" x="260.264" y="400.074" fill="black" font-size="12.7324" font-family="Times">&#0177;</text>
</g>
<g transform="rotate(-1,259.789,387.275)">
<text xml:space="preserve" x="259.789" y="387.275" fill="black" font-size="12.7324" font-family="Helvetica">2.81</text>
</g>
<g transform="rotate(-1,394.885,399.6)">
<text xml:space="preserve" x="394.885" y="399.6" fill="black" font-size="12.7324" font-family="Helvetica"> 0.05</text>
</g>
<g transform="rotate(-1,387.775,399.6)">
<text xml:space="preserve" x="387.775" y="399.6" fill="black" font-size="12.7324" font-family="Times">&#0177;</text>
</g>
<g transform="rotate(-1,387.301,387.275)">
<text xml:space="preserve" x="387.301" y="387.275" fill="black" font-size="12.7324" font-family="Helvetica">7.14</text>
</g>
<g transform="rotate(-1,474.995,399.6)">
<text xml:space="preserve" x="474.995" y="399.6" fill="black" font-size="12.7324" font-family="Helvetica"> 0.07</text>
</g>
<g transform="rotate(-1,467.885,400.074)">
<text xml:space="preserve" x="467.885" y="400.074" fill="black" font-size="12.7324" font-family="Times">&#0177;</text>
</g>
<g transform="rotate(-1,467.411,387.275)">
<text xml:space="preserve" x="467.411" y="387.275" fill="black" font-size="12.7324" font-family="Helvetica">11.79</text>
</g>
<g transform="rotate(-1,137.492,111.395)">
<text xml:space="preserve" x="137.492" y="111.395" fill="black" font-size="12.7324" font-family="Helvetica"> 0.03</text>
</g>
<g transform="rotate(-1,130.382,111.869)">
<text xml:space="preserve" x="130.382" y="111.869" fill="black" font-size="12.7324" font-family="Times">&#0177;</text>
</g>
<g transform="rotate(-1,129.908,99.0704)">
<text xml:space="preserve" x="129.908" y="99.0704" fill="black" font-size="12.7324" font-family="Helvetica">2.49</text>
</g>
<g transform="rotate(-1,267.374,111.395)">
<text xml:space="preserve" x="267.374" y="111.395" fill="black" font-size="12.7324" font-family="Helvetica"> 0.06</text>
</g>
<g transform="rotate(-1,260.264,111.869)">
<text xml:space="preserve" x="260.264" y="111.869" fill="black" font-size="12.7324" font-family="Times">&#0177;</text>
</g>
<g transform="rotate(-1,259.789,99.0704)">
<text xml:space="preserve" x="259.789" y="99.0704" fill="black" font-size="12.7324" font-family="Helvetica">3.02</text>
</g>
<g transform="rotate(-1,394.885,111.395)">
<text xml:space="preserve" x="394.885" y="111.395" fill="black" font-size="12.7324" font-family="Helvetica"> 0.09</text>
</g>
<g transform="rotate(-1,387.775,111.869)">
<text xml:space="preserve" x="387.775" y="111.869" fill="black" font-size="12.7324" font-family="Times">&#0177;</text>
</g>
<g transform="rotate(-1,387.301,99.0704)">
<text xml:space="preserve" x="387.301" y="99.0704" fill="black" font-size="12.7324" font-family="Helvetica">6.78</text>
</g>
<g transform="rotate(-1,474.995,111.395)">
<text xml:space="preserve" x="474.995" y="111.395" fill="black" font-size="12.7324" font-family="Helvetica"> 0.09</text>
</g>
<g transform="rotate(-1,467.885,111.869)">
<text xml:space="preserve" x="467.885" y="111.869" fill="black" font-size="12.7324" font-family="Times">&#0177;</text>
</g>
<g transform="rotate(-1,467.411,99.0704)">
<text xml:space="preserve" x="467.411" y="99.0704" fill="black" font-size="12.7324" font-family="Helvetica">12.61</text>
</g>
<path d="M91.2087,466.664h 447.874" fill="none" stroke="black"/>
<g transform="rotate(20,145.55,477.339)">
<text xml:space="preserve" x="145.55" y="477.339" fill="black" font-size="17.4892" font-family="Helvetica">[0.0 - 0.6]</text>
</g>
<g transform="rotate(20,275.432,477.339)">
<text xml:space="preserve" x="275.432" y="477.339" fill="black" font-size="17.4892" font-family="Helvetica">[0.6 - 1.37]</text>
</g>
<g transform="rotate(20,362.178,477.339)">
<text xml:space="preserve" x="362.178" y="477.339" fill="black" font-size="17.4892" font-family="Helvetica">[1.37 - 1.52]</text>
</g>
<g transform="rotate(20,402.944,477.339)">
<text xml:space="preserve" x="402.944" y="477.339" fill="black" font-size="17.4892" font-family="Helvetica">[1.52 - 1.8]</text>
</g>
<g transform="rotate(20,483.053,477.339)">
<text xml:space="preserve" x="483.053" y="477.339" fill="black" font-size="17.4892" font-family="Helvetica">[1.8 - 2.37]</text>
</g>
<path d="M91.2087,453.498v 13.1666" fill="none" stroke="black"/>
<path d="M185.697,453.498v 13.1666" fill="none" stroke="black"/>
<path d="M280.185,453.498v 13.1666" fill="none" stroke="black"/>
<path d="M374.673,453.498v 13.1666" fill="none" stroke="black"/>
<path d="M469.161,453.498v 13.1666" fill="none" stroke="black"/>
<path d="M469.161,453.498v 13.1666" fill="none" stroke="black"/>
<text xml:space="preserve" x="491.586" y="535.644" fill="black" font-size="25.9841" font-family="Helvetica">|eta|</text>
<path d="M91.2087,27.7776h 447.874" fill="none" stroke="black"/>
<path d="M91.2087,40.9442v -13.1666" fill="none" stroke="black"/>
<path d="M185.697,40.9442v -13.1666" fill="none" stroke="black"/>
<path d="M280.185,40.9442v -13.1666" fill="none" stroke="black"/>
<path d="M374.673,40.9442v -13.1666" fill="none" stroke="black"/>
<path d="M469.161,40.9442v -13.1666" fill="none" stroke="black"/>
<path d="M469.161,40.9442v -13.1666" fill="none" stroke="black"/>
<path d="M91.2087,466.664v -438.887" fill="none" stroke="black"/>
<text xml:space="preserve" x="17.0907" y="-6295.95" fill="black" font-size="17.4892" font-family="Helvetica">[20 - 35] </text>
<text xml:space="preserve" x="17.0907" y="-9524.98" fill="black" font-size="17.4892" font-family="Helvetica">[35 - 45] </text>
<text xml:space="preserve" x="-1.87011" y="-15163.5" fill="black" font-size="17.4892" font-family="Helvetica">[45 - 1000] </text>
<path d="M97.9268,421.176h -6.71811" fill="none" stroke="black"/>
<path d="M97.9268,388.901h -6.71811" fill="none" stroke="black"/>
<path d="M97.9268,363.867h -6.71811" fill="none" stroke="black"/>
<path d="M97.9268,343.412h -6.71811" fill="none" stroke="black"/>
<path d="M97.9268,326.118h -6.71811" fill="none" stroke="black"/>
<path d="M97.9268,311.137h -6.71811" fill="none" stroke="black"/>
<path d="M97.9268,297.923h -6.71811" fill="none" stroke="black"/>
<path d="M104.645,286.103h -13.4362" fill="none" stroke="black"/>
<text xml:space="preserve" x="82.0316" y="286.309" fill="black" font-size="11.8261" font-family="Helvetica">2</text>
<text xml:space="preserve" x="63.5448" y="293.893" fill="black" font-size="17.4892" font-family="Helvetica">10</text>
<path d="M97.9268,208.339h -6.71811" fill="none" stroke="black"/>
<path d="M97.9268,162.85h -6.71811" fill="none" stroke="black"/>
<path d="M97.9268,130.576h -6.71811" fill="none" stroke="black"/>
<path d="M97.9268,105.541h -6.71811" fill="none" stroke="black"/>
<path d="M97.9268,85.0868h -6.71811" fill="none" stroke="black"/>
<path d="M97.9268,67.7927h -6.71811" fill="none" stroke="black"/>
<path d="M97.9268,52.8119h -6.71811" fill="none" stroke="black"/>
<path d="M97.9268,39.5979h -6.71811" fill="none" stroke="black"/>
<path d="M104.645,27.7776h -13.4362" fill="none" stroke="black"/>
<text xml:space="preserve" x="82.0316" y="27.4932" fill="black" font-size="11.8261" font-family="Helvetica">3</text>
<text xml:space="preserve" x="63.5448" y="35.5516" fill="black" font-size="17.4892" font-family="Helvetica">10</text>
<g transform="rotate(-90,34.6295,130.356)">
<text xml:space="preserve" x="34.6295" y="130.356" fill="black" font-size="25.9841" font-family="Helvetica">pT [GeV]</text>
</g>
<path d="M539.083,466.664v -438.887" fill="none" stroke="black"/>
<path d="M532.365,421.176h 6.71811" fill="none" stroke="black"/>
<path d="M532.365,388.901h 6.71811" fill="none" stroke="black"/>
<path d="M532.365,363.867h 6.71811" fill="none" stroke="black"/>
<path d="M532.365,343.412h 6.71811" fill="none" stroke="black"/>
<path d="M532.365,326.118h 6.71811" fill="none" stroke="black"/>
<path d="M532.365,311.137h 6.71811" fill="none" stroke="black"/>
<path d="M532.365,297.923h 6.71811" fill="none" stroke="black"/>
<path d="M525.646,286.103h 13.4362" fill="none" stroke="black"/>
<path d="M532.365,208.339h 6.71811" fill="none" stroke="black"/>
<path d="M532.365,162.85h 6.71811" fill="none" stroke="black"/>
<path d="M532.365,130.576h 6.71811" fill="none" stroke="black"/>
<path d="M532.365,105.541h 6.71811" fill="none" stroke="black"/>
<path d="M532.365,85.0868h 6.71811" fill="none" stroke="black"/>
<path d="M532.365,67.7927h 6.71811" fill="none" stroke="black"/>
<path d="M532.365,52.8119h 6.71811" fill="none" stroke="black"/>
<path d="M532.365,39.5979h 6.71811" fill="none" stroke="black"/>
<path d="M525.646,27.7776h 13.4362" fill="none" stroke="black"/>
<rect x="541.917" y="444.72" width="25.2283" height="21.9443" fill="#2e45e2"/>
<rect x="541.917" y="422.776" width="25.2283" height="21.9443" fill="#3f66d9"/>
<rect x="541.917" y="400.831" width="25.2283" height="21.9443" fill="#5280d9"/>
<rect x="541.917" y="378.887" width="25.2283" height="21.9443" fill="#6595de"/>
<rect x="541.917" y="356.943" width="25.2283" height="21.9443" fill="#7babe4"/>
<rect x="541.917" y="334.998" width="25.2283" height="21.9443" fill="#8abbe1"/>
<rect x="541.917" y="313.054" width="25.2283" height="21.9443" fill="#99cbdf"/>
<rect x="541.917" y="291.11" width="25.2283" height="21.9443" fill="#a9d6db"/>
<rect x="541.917" y="269.165" width="25.2283" height="21.9443" fill="#bdded6"/>
<rect x="541.917" y="247.221" width="25.2283" height="21.9443" fill="#d2e7d2"/>
<rect x="541.917" y="225.277" width="25.2283" height="21.9443" fill="#d6e2bd"/>
<rect x="541.917" y="203.332" width="25.2283" height="21.9443" fill="#dbdeaa"/>
<rect x="541.917" y="181.388" width="25.2283" height="21.9443" fill="#dcd695"/>
<rect x="541.917" y="159.444" width="25.2283" height="21.9443" fill="#d9ca7f"/>
<rect x="541.917" y="137.499" width="25.2283" height="21.9443" fill="#d6be69"/>
<rect x="541.917" y="115.555" width="25.2283" height="21.9443" fill="#d0a858"/>
<rect x="541.917" y="93.6106" width="25.2283" height="21.9443" fill="#ca9045"/>
<rect x="541.917" y="71.6663" width="25.2283" height="21.9443" fill="#c47737"/>
<rect x="541.917" y="49.722" width="25.2283" height="21.9443" fill="#bd5c2c"/>
<rect x="541.917" y="27.7776" width="25.2283" height="21.9443" fill="#b74322"/>
<path d="M567.146,466.664v -438.887" fill="none" stroke="black"/>
<path d="M553.709,466.664h 13.4362" fill="none" stroke="black"/>
<path d="M553.709,397.067h 13.4362" fill="none" stroke="black"/>
<path d="M553.709,327.471h 13.4362" fill="none" stroke="black"/>
<path d="M553.709,257.874h 13.4362" fill="none" stroke="black"/>
<path d="M553.709,188.277h 13.4362" fill="none" stroke="black"/>
<path d="M553.709,118.68h 13.4362" fill="none" stroke="black"/>
<path d="M553.709,49.0837h 13.4362" fill="none" stroke="black"/>
<path d="M553.709,49.0837h 13.4362" fill="none" stroke="black"/>
<text xml:space="preserve" x="569.799" y="475.443" fill="black" font-size="25.9841" font-family="Helvetica">0</text>
<text xml:space="preserve" x="569.799" y="406.236" fill="black" font-size="25.9841" font-family="Helvetica">2</text>
<text xml:space="preserve" x="569.799" y="336.555" fill="black" font-size="25.9841" font-family="Helvetica">4</text>
<text xml:space="preserve" x="569.799" y="266.874" fill="black" font-size="25.9841" font-family="Helvetica">6</text>
<text xml:space="preserve" x="569.799" y="197.193" fill="black" font-size="25.9841" font-family="Helvetica">8</text>
<text xml:space="preserve" x="569.799" y="127.512" fill="black" font-size="25.9841" font-family="Helvetica">10</text>
<text xml:space="preserve" x="569.799" y="58.3046" fill="black" font-size="25.9841" font-family="Helvetica">12</text></svg>
