<?xml version="1.0" standalone="no"?>
<svg width="567.429" height="556.053" viewBox="0 0 567.429 556.053" xmlns="http://www.w3.org/2000/svg" shape-rendering="crispEdges">
<title>
converted_nominal_h2_data_fc.svg
</title>
<desc>
Creator: ROOT Version 6.20/06
CreationDate: Wed Nov  3 14:26:23 2021</desc>
<defs>
</defs>
<rect x="0.5" y="0" width="566.929" height="555.553" fill="white"/>
<rect x="57.1929" y="55.5553" width="453.543" height="444.442" fill="white"/>
<rect x="57.1929" y="55.5553" width="453.543" height="444.442" fill="none" stroke="black"/>
<rect x="57.1929" y="55.5553" width="453.543" height="444.442" fill="white"/>
<rect x="57.1929" y="55.5553" width="453.543" height="444.442" fill="none" stroke="black"/>
<rect x="57.1929" y="436.42" width="114.821" height="63.5775" fill="#6595de"/>
<rect x="172.014" y="436.42" width="147.354" height="63.5775" fill="#7babe4"/>
<rect x="348.073" y="436.42" width="53.5832" height="63.5775" fill="#d6e2bd"/>
<rect x="401.656" y="436.42" width="109.08" height="63.5775" fill="#bd5c2c"/>
<rect x="57.1929" y="407.868" width="114.821" height="28.5516" fill="#6595de"/>
<rect x="172.014" y="407.868" width="147.354" height="28.5516" fill="#7babe4"/>
<rect x="348.073" y="407.868" width="53.5832" height="28.5516" fill="#dbdeaa"/>
<rect x="401.656" y="407.868" width="109.08" height="28.5516" fill="#b74322"/>
<rect x="57.1929" y="55.5553" width="114.821" height="352.313" fill="#6595de"/>
<rect x="172.014" y="55.5553" width="147.354" height="352.313" fill="#7babe4"/>
<rect x="348.073" y="55.5553" width="53.5832" height="352.313" fill="#d6e2bd"/>
<rect x="401.656" y="55.5553" width="109.08" height="352.313" fill="#b74322"/>
<g transform="rotate(-1,105.259,473.073)">
<text xml:space="preserve" x="105.259" y="473.073" fill="black" font-size="10.6936" font-family="Helvetica" font-weight="bold"> 0.05</text>
</g>
<g transform="rotate(-1,99.5704,473.073)">
<text xml:space="preserve" x="99.5704" y="473.073" fill="black" font-size="10.6936" font-family="Times">&#0177;</text>
</g>
<g transform="rotate(-1,99.5704,462.17)">
<text xml:space="preserve" x="99.5704" y="462.17" fill="black" font-size="10.6936" font-family="Helvetica" font-weight="bold">2.33</text>
</g>
<g transform="rotate(-1,236.562,473.073)">
<text xml:space="preserve" x="236.562" y="473.073" fill="black" font-size="10.6936" font-family="Helvetica" font-weight="bold"> 0.05</text>
</g>
<g transform="rotate(-1,230.874,473.073)">
<text xml:space="preserve" x="230.874" y="473.073" fill="black" font-size="10.6936" font-family="Times">&#0177;</text>
</g>
<g transform="rotate(-1,230.874,462.17)">
<text xml:space="preserve" x="230.874" y="462.17" fill="black" font-size="10.6936" font-family="Helvetica" font-weight="bold">3.08</text>
</g>
<g transform="rotate(-1,366.444,473.073)">
<text xml:space="preserve" x="366.444" y="473.073" fill="black" font-size="10.6936" font-family="Helvetica" font-weight="bold"> 0.11</text>
</g>
<g transform="rotate(-1,360.756,473.073)">
<text xml:space="preserve" x="360.756" y="473.073" fill="black" font-size="10.6936" font-family="Times">&#0177;</text>
</g>
<g transform="rotate(-1,360.756,462.17)">
<text xml:space="preserve" x="360.756" y="462.17" fill="black" font-size="10.6936" font-family="Helvetica" font-weight="bold">6.72</text>
</g>
<g transform="rotate(-1,447.028,473.073)">
<text xml:space="preserve" x="447.028" y="473.073" fill="black" font-size="10.6936" font-family="Helvetica" font-weight="bold"> 0.06</text>
</g>
<g transform="rotate(-1,441.34,473.073)">
<text xml:space="preserve" x="441.34" y="473.073" fill="black" font-size="10.6936" font-family="Times">&#0177;</text>
</g>
<g transform="rotate(-1,441.34,462.17)">
<text xml:space="preserve" x="441.34" y="462.17" fill="black" font-size="10.6936" font-family="Helvetica" font-weight="bold">11.31</text>
</g>
<g transform="rotate(-1,106.207,430.411)">
<text xml:space="preserve" x="106.207" y="430.411" fill="black" font-size="10.6936" font-family="Helvetica" font-weight="bold"> 0.01</text>
</g>
<g transform="rotate(-1,100.518,430.411)">
<text xml:space="preserve" x="100.518" y="430.411" fill="black" font-size="10.6936" font-family="Times">&#0177;</text>
</g>
<g transform="rotate(-1,100.518,419.509)">
<text xml:space="preserve" x="100.518" y="419.509" fill="black" font-size="10.6936" font-family="Helvetica" font-weight="bold">2.39</text>
</g>
<g transform="rotate(-1,237.511,430.411)">
<text xml:space="preserve" x="237.511" y="430.411" fill="black" font-size="10.6936" font-family="Helvetica" font-weight="bold"> 0.01</text>
</g>
<g transform="rotate(-1,231.822,430.411)">
<text xml:space="preserve" x="231.822" y="430.411" fill="black" font-size="10.6936" font-family="Times">&#0177;</text>
</g>
<g transform="rotate(-1,231.822,419.509)">
<text xml:space="preserve" x="231.822" y="419.509" fill="black" font-size="10.6936" font-family="Helvetica" font-weight="bold">3.07</text>
</g>
<g transform="rotate(-1,365.496,430.411)">
<text xml:space="preserve" x="365.496" y="430.411" fill="black" font-size="10.6936" font-family="Helvetica" font-weight="bold"> 0.06</text>
</g>
<g transform="rotate(-1,359.808,430.411)">
<text xml:space="preserve" x="359.808" y="430.411" fill="black" font-size="10.6936" font-family="Times">&#0177;</text>
</g>
<g transform="rotate(-1,359.808,419.509)">
<text xml:space="preserve" x="359.808" y="419.509" fill="black" font-size="10.6936" font-family="Helvetica" font-weight="bold">6.92</text>
</g>
<g transform="rotate(-1,447.028,430.411)">
<text xml:space="preserve" x="447.028" y="430.411" fill="black" font-size="10.6936" font-family="Helvetica" font-weight="bold"> 0.02</text>
</g>
<g transform="rotate(-1,441.34,430.411)">
<text xml:space="preserve" x="441.34" y="430.411" fill="black" font-size="10.6936" font-family="Times">&#0177;</text>
</g>
<g transform="rotate(-1,441.34,419.509)">
<text xml:space="preserve" x="441.34" y="419.509" fill="black" font-size="10.6936" font-family="Helvetica" font-weight="bold">12.45</text>
</g>
<g transform="rotate(-1,105.259,138.414)">
<text xml:space="preserve" x="105.259" y="138.414" fill="black" font-size="10.6936" font-family="Helvetica" font-weight="bold"> 0.02</text>
</g>
<g transform="rotate(-1,99.5704,138.414)">
<text xml:space="preserve" x="99.5704" y="138.414" fill="black" font-size="10.6936" font-family="Times">&#0177;</text>
</g>
<g transform="rotate(-1,99.5704,127.512)">
<text xml:space="preserve" x="99.5704" y="127.512" fill="black" font-size="10.6936" font-family="Helvetica" font-weight="bold">2.40</text>
</g>
<g transform="rotate(-1,236.562,138.414)">
<text xml:space="preserve" x="236.562" y="138.414" fill="black" font-size="10.6936" font-family="Helvetica" font-weight="bold"> 0.03</text>
</g>
<g transform="rotate(-1,230.874,138.414)">
<text xml:space="preserve" x="230.874" y="138.414" fill="black" font-size="10.6936" font-family="Times">&#0177;</text>
</g>
<g transform="rotate(-1,230.874,127.512)">
<text xml:space="preserve" x="230.874" y="127.512" fill="black" font-size="10.6936" font-family="Helvetica" font-weight="bold">3.06</text>
</g>
<g transform="rotate(-1,365.496,138.414)">
<text xml:space="preserve" x="365.496" y="138.414" fill="black" font-size="10.6936" font-family="Helvetica" font-weight="bold"> 0.06</text>
</g>
<g transform="rotate(-1,359.808,138.414)">
<text xml:space="preserve" x="359.808" y="138.414" fill="black" font-size="10.6936" font-family="Times">&#0177;</text>
</g>
<g transform="rotate(-1,359.808,127.512)">
<text xml:space="preserve" x="359.808" y="127.512" fill="black" font-size="10.6936" font-family="Helvetica" font-weight="bold">6.69</text>
</g>
<g transform="rotate(-1,447.028,138.414)">
<text xml:space="preserve" x="447.028" y="138.414" fill="black" font-size="10.6936" font-family="Helvetica" font-weight="bold"> 0.07</text>
</g>
<g transform="rotate(-1,441.34,138.414)">
<text xml:space="preserve" x="441.34" y="138.414" fill="black" font-size="10.6936" font-family="Times">&#0177;</text>
</g>
<g transform="rotate(-1,441.34,127.512)">
<text xml:space="preserve" x="441.34" y="127.512" fill="black" font-size="10.6936" font-family="Helvetica" font-weight="bold">12.45</text>
</g>
<path d="M57.1929,499.997h 453.543" fill="none" stroke="black"/>
<text xml:space="preserve" x="88.6679" y="515.261" fill="black" font-size="12.3924" font-family="Helvetica">[0.0 - 0.6]</text>
<text xml:space="preserve" x="216.18" y="515.261" fill="black" font-size="12.3924" font-family="Helvetica">[0.6 - 1.37]</text>
<text xml:space="preserve" x="300.555" y="515.261" fill="black" font-size="12.3924" font-family="Helvetica">[1.37 - 1.52]</text>
<text xml:space="preserve" x="345.113" y="515.261" fill="black" font-size="12.3924" font-family="Helvetica">[1.52 - 1.8]</text>
<text xml:space="preserve" x="426.645" y="515.261" fill="black" font-size="12.3924" font-family="Helvetica">[1.8 - 2.37]</text>
<path d="M57.1929,486.664v 13.3333" fill="none" stroke="black"/>
<path d="M152.877,486.664v 13.3333" fill="none" stroke="black"/>
<path d="M248.561,486.664v 13.3333" fill="none" stroke="black"/>
<path d="M344.246,486.664v 13.3333" fill="none" stroke="black"/>
<path d="M439.93,486.664v 13.3333" fill="none" stroke="black"/>
<path d="M439.93,486.664v 13.3333" fill="none" stroke="black"/>
<text xml:space="preserve" x="477.839" y="535.644" fill="black" font-size="18.3388" font-family="Helvetica">|eta|</text>
<path d="M57.1929,499.997v -444.442" fill="none" stroke="black"/>
<text xml:space="preserve" x="1.44804" y="-6349.51" fill="black" font-size="12.3924" font-family="Helvetica">[20 - 35] </text>
<text xml:space="preserve" x="1.44804" y="-9619.31" fill="black" font-size="12.3924" font-family="Helvetica">[35 - 45] </text>
<text xml:space="preserve" x="-12.2986" y="-15164.9" fill="black" font-size="12.3924" font-family="Helvetica">[45 - 1000] </text>
<path d="M63.9961,453.933h -6.80315" fill="none" stroke="black"/>
<path d="M63.9961,421.25h -6.80315" fill="none" stroke="black"/>
<path d="M63.9961,395.898h -6.80315" fill="none" stroke="black"/>
<path d="M63.9961,375.185h -6.80315" fill="none" stroke="black"/>
<path d="M63.9961,357.672h -6.80315" fill="none" stroke="black"/>
<path d="M63.9961,342.502h -6.80315" fill="none" stroke="black"/>
<path d="M63.9961,329.12h -6.80315" fill="none" stroke="black"/>
<path d="M70.7992,317.15h -13.6063" fill="none" stroke="black"/>
<text xml:space="preserve" x="50.2722" y="317.594" fill="black" font-size="8.4283" font-family="Helvetica">2</text>
<text xml:space="preserve" x="36.9996" y="322.808" fill="black" font-size="12.3924" font-family="Helvetica">10</text>
<path d="M63.9961,238.402h -6.80315" fill="none" stroke="black"/>
<path d="M63.9961,192.338h -6.80315" fill="none" stroke="black"/>
<path d="M63.9961,159.654h -6.80315" fill="none" stroke="black"/>
<path d="M63.9961,134.303h -6.80315" fill="none" stroke="black"/>
<path d="M63.9961,113.59h -6.80315" fill="none" stroke="black"/>
<path d="M63.9961,96.0769h -6.80315" fill="none" stroke="black"/>
<path d="M63.9961,80.9065h -6.80315" fill="none" stroke="black"/>
<path d="M63.9961,67.5252h -6.80315" fill="none" stroke="black"/>
<path d="M70.7992,55.5553h -13.6063" fill="none" stroke="black"/>
<text xml:space="preserve" x="50.2722" y="55.4605" fill="black" font-size="8.4283" font-family="Helvetica">3</text>
<text xml:space="preserve" x="36.9996" y="61.1487" fill="black" font-size="12.3924" font-family="Helvetica">10</text>
<g transform="rotate(-90,-19.8829,126.564)">
<text xml:space="preserve" x="-19.8829" y="126.564" fill="black" font-size="18.3388" font-family="Helvetica">pT [GeV]</text>
</g>
<rect x="513.571" y="477.775" width="25.5118" height="22.2221" fill="#2e45e2"/>
<rect x="513.571" y="455.553" width="25.5118" height="22.2221" fill="#3f66d9"/>
<rect x="513.571" y="433.331" width="25.5118" height="22.2221" fill="#5280d9"/>
<rect x="513.571" y="411.109" width="25.5118" height="22.2221" fill="#6595de"/>
<rect x="513.571" y="388.887" width="25.5118" height="22.2221" fill="#7babe4"/>
<rect x="513.571" y="366.665" width="25.5118" height="22.2221" fill="#8abbe1"/>
<rect x="513.571" y="344.443" width="25.5118" height="22.2221" fill="#99cbdf"/>
<rect x="513.571" y="322.221" width="25.5118" height="22.2221" fill="#a9d6db"/>
<rect x="513.571" y="299.998" width="25.5118" height="22.2221" fill="#bdded6"/>
<rect x="513.571" y="277.776" width="25.5118" height="22.2221" fill="#d2e7d2"/>
<rect x="513.571" y="255.554" width="25.5118" height="22.2221" fill="#d6e2bd"/>
<rect x="513.571" y="233.332" width="25.5118" height="22.2221" fill="#dbdeaa"/>
<rect x="513.571" y="211.11" width="25.5118" height="22.2221" fill="#dcd695"/>
<rect x="513.571" y="188.888" width="25.5118" height="22.2221" fill="#d9ca7f"/>
<rect x="513.571" y="166.666" width="25.5118" height="22.2221" fill="#d6be69"/>
<rect x="513.571" y="144.444" width="25.5118" height="22.2221" fill="#d0a858"/>
<rect x="513.571" y="122.222" width="25.5118" height="22.2221" fill="#ca9045"/>
<rect x="513.571" y="99.9995" width="25.5118" height="22.2221" fill="#c47737"/>
<rect x="513.571" y="77.7774" width="25.5118" height="22.2221" fill="#bd5c2c"/>
<rect x="513.571" y="55.5553" width="25.5118" height="22.2221" fill="#b74322"/>
<path d="M539.083,499.997v -444.442" fill="none" stroke="black"/>
<path d="M525.476,499.997h 13.6063" fill="none" stroke="black"/>
<path d="M525.476,428.62h 13.6063" fill="none" stroke="black"/>
<path d="M525.476,357.243h 13.6063" fill="none" stroke="black"/>
<path d="M525.476,285.865h 13.6063" fill="none" stroke="black"/>
<path d="M525.476,214.488h 13.6063" fill="none" stroke="black"/>
<path d="M525.476,143.111h 13.6063" fill="none" stroke="black"/>
<path d="M525.476,71.7333h 13.6063" fill="none" stroke="black"/>
<path d="M525.476,71.7333h 13.6063" fill="none" stroke="black"/>
<text xml:space="preserve" x="541.832" y="506.254" fill="black" font-size="18.3388" font-family="Helvetica">0</text>
<text xml:space="preserve" x="541.832" y="435.151" fill="black" font-size="18.3388" font-family="Helvetica">2</text>
<text xml:space="preserve" x="541.832" y="363.574" fill="black" font-size="18.3388" font-family="Helvetica">4</text>
<text xml:space="preserve" x="541.832" y="292.471" fill="black" font-size="18.3388" font-family="Helvetica">6</text>
<text xml:space="preserve" x="541.832" y="220.894" fill="black" font-size="18.3388" font-family="Helvetica">8</text>
<text xml:space="preserve" x="541.832" y="149.317" fill="black" font-size="18.3388" font-family="Helvetica">10</text>
<text xml:space="preserve" x="541.832" y="78.2135" fill="black" font-size="18.3388" font-family="Helvetica">12</text>
<text xml:space="preserve" x="191.53" y="27.0192" fill="black" font-size="24.3276" font-family="Helvetica">2D data fake rate</text></svg>
